{
  "url": "https://api.github.com/repos/quarkusio/quarkus/issues/41196",
  "repository_url": "https://api.github.com/repos/quarkusio/quarkus",
  "labels_url": "https://api.github.com/repos/quarkusio/quarkus/issues/41196/labels{/name}",
  "comments_url": "https://api.github.com/repos/quarkusio/quarkus/issues/41196/comments",
  "events_url": "https://api.github.com/repos/quarkusio/quarkus/issues/41196/events",
  "html_url": "https://github.com/quarkusio/quarkus/issues/41196",
  "id": 2352521382,
  "node_id": "I_kwDOCFbutM6MOKCm",
  "number": 41196,
  "title": "Add pagination fields in response or headers for rest-data-panache",
  "labels": [
    {
      "id": 985346622,
      "node_id": "MDU6TGFiZWw5ODUzNDY2MjI=",
      "url": "https://api.github.com/repos/quarkusio/quarkus/labels/kind/enhancement",
      "name": "kind/enhancement",
      "color": "a2eeef",
      "default": false,
      "description": "New feature or request"
    },
    {
      "id": 1273026134,
      "node_id": "MDU6TGFiZWwxMjczMDI2MTM0",
      "url": "https://api.github.com/repos/quarkusio/quarkus/labels/area/panache",
      "name": "area/panache",
      "color": "0366d6",
      "default": false,
      "description": ""
    }
  ],
  "state": "open",
  "locked": false,
  "milestone": null,
  "comments": 1,
  "created_at": "2024-06-14T05:11:14Z",
  "updated_at": "2024-06-14T05:13:15Z",
  "closed_at": null,
  "active_lock_reason": null,
  "body": "### Description\r\n\r\nIn rest-data-panache, is it possible for the endpoint that returns the list of records to also return the pagination fields as response or as headers?\r\n\r\nFor example:\r\n\r\n```json\r\n{\r\n  \"content\": [\r\n\r\n  ],\r\n  \"page\": {\r\n    \"size\": 1,\r\n    \"totalElements\": 3,\r\n    \"totalPages\": 3,\r\n    \"number\": 0\r\n  }\r\n}\r\n```\r\n\r\n\r\n### Implementation ideas\r\n\r\n_No response_",
  "reactions": {
    "url": "https://api.github.com/repos/quarkusio/quarkus/issues/41196/reactions",
    "total_count": 0,
    "+1": 0,
    "-1": 0,
    "laugh": 0,
    "hooray": 0,
    "confused": 0,
    "heart": 0,
    "rocket": 0,
    "eyes": 0
  },
  "timeline_url": "https://api.github.com/repos/quarkusio/quarkus/issues/41196/timeline",
  "performed_via_github_app": null,
  "state_reason": null
}
